[
  {
    "name": "elephant",
    "link": "weight/elephant",
    "img": "https://imgcomfort.com/Userfiles/Upload/images/illustration-geiranger.jpg",
    "value": 6000,
    "unit": "Kg"
  },
  {
    "name": "bee",
    "link": "weight/bee",
    "img": "https://imgcomfort.com/Userfiles/Upload/images/illustration-geiranger.jpg",
    "value": 0.25,
    "unit": "Kg"
  }
]